lab3/simulation/qsim/lab_vhdl1.msim.vcd
$comment
	File created using the following command:
		vcd file lab_vhdl1.msim.vcd -direction
$end
$date
	Tue Aug 07 00:09:24 2018
$end
$version
	ModelSim Version 10.5b
$end
$timescale
	1ps
$end

$scope module frequency_divider_vhd_vec_tst $end
$var wire 1 ! CLK $end
$var wire 1 " one_sec_flag $end
$var wire 1 # RESETN $end

$scope module i1 $end
$var wire 1 $ gnd $end
$var wire 1 % vcc $end
$var wire 1 & unknown $end
$var wire 1 ' devoe $end
$var wire 1 ( devclrn $end
$var wire 1 ) devpor $end
$var wire 1 * ww_devoe $end
$var wire 1 + ww_devclrn $end
$var wire 1 , ww_devpor $end
$var wire 1 - ww_CLK $end
$var wire 1 . ww_RESETN $end
$var wire 1 / ww_one_sec_flag $end
$var wire 1 0 \one_sec_flag~output_o\ $end
$var wire 1 1 \CLK~input_o\ $end
$var wire 1 2 \RESETN~input_o\ $end
$var wire 1 3 \Add0~2\ $end
$var wire 1 4 \Add0~5_sumout\ $end
$var wire 1 5 \Add0~6\ $end
$var wire 1 6 \Add0~9_sumout\ $end
$var wire 1 7 \Add0~10\ $end
$var wire 1 8 \Add0~13_sumout\ $end
$var wire 1 9 \LessThan0~0_combout\ $end
$var wire 1 : \LessThan0~8_combout\ $end
$var wire 1 ; \LessThan0~1_combout\ $end
$var wire 1 < \LessThan0~5_combout\ $end
$var wire 1 = \LessThan0~6_combout\ $end
$var wire 1 > \LessThan0~7_combout\ $end
$var wire 1 ? \Add0~125_sumout\ $end
$var wire 1 @ \one_sec~0_combout\ $end
$var wire 1 A \Add0~126\ $end
$var wire 1 B \Add0~57_sumout\ $end
$var wire 1 C \Add0~58\ $end
$var wire 1 D \Add0~61_sumout\ $end
$var wire 1 E \Add0~62\ $end
$var wire 1 F \Add0~65_sumout\ $end
$var wire 1 G \Add0~66\ $end
$var wire 1 H \Add0~69_sumout\ $end
$var wire 1 I \Add0~70\ $end
$var wire 1 J \Add0~73_sumout\ $end
$var wire 1 K \Add0~74\ $end
$var wire 1 L \Add0~77_sumout\ $end
$var wire 1 M \Add0~78\ $end
$var wire 1 N \Add0~101_sumout\ $end
$var wire 1 O \Add0~102\ $end
$var wire 1 P \Add0~105_sumout\ $end
$var wire 1 Q \Add0~106\ $end
$var wire 1 R \Add0~109_sumout\ $end
$var wire 1 S \Add0~110\ $end
$var wire 1 T \Add0~113_sumout\ $end
$var wire 1 U \Add0~114\ $end
$var wire 1 V \Add0~117_sumout\ $end
$var wire 1 W \Add0~118\ $end
$var wire 1 X \Add0~37_sumout\ $end
$var wire 1 Y \Add0~38\ $end
$var wire 1 Z \Add0~41_sumout\ $end
$var wire 1 [ \Add0~42\ $end
$var wire 1 \ \Add0~45_sumout\ $end
$var wire 1 ] \Add0~46\ $end
$var wire 1 ^ \Add0~49_sumout\ $end
$var wire 1 _ \Add0~50\ $end
$var wire 1 ` \Add0~121_sumout\ $end
$var wire 1 a \Add0~122\ $end
$var wire 1 b \Add0~53_sumout\ $end
$var wire 1 c \Add0~54\ $end
$var wire 1 d \Add0~81_sumout\ $end
$var wire 1 e \Add0~82\ $end
$var wire 1 f \Add0~85_sumout\ $end
$var wire 1 g \Add0~86\ $end
$var wire 1 h \Add0~89_sumout\ $end
$var wire 1 i \Add0~90\ $end
$var wire 1 j \Add0~93_sumout\ $end
$var wire 1 k \Add0~94\ $end
$var wire 1 l \Add0~17_sumout\ $end
$var wire 1 m \Add0~18\ $end
$var wire 1 n \Add0~21_sumout\ $end
$var wire 1 o \Add0~22\ $end
$var wire 1 p \Add0~25_sumout\ $end
$var wire 1 q \Add0~26\ $end
$var wire 1 r \Add0~29_sumout\ $end
$var wire 1 s \Add0~30\ $end
$var wire 1 t \Add0~97_sumout\ $end
$var wire 1 u \Add0~98\ $end
$var wire 1 v \Add0~33_sumout\ $end
$var wire 1 w \Add0~34\ $end
$var wire 1 x \Add0~1_sumout\ $end
$var wire 1 y \LessThan0~2_combout\ $end
$var wire 1 z \LessThan0~3_combout\ $end
$var wire 1 { \LessThan0~9_combout\ $end
$var wire 1 | \LessThan0~4_combout\ $end
$var wire 1 } \one_sec_flag~reg0_q\ $end
$var wire 1 ~ one_sec [31] $end
$var wire 1 !! one_sec [30] $end
$var wire 1 "! one_sec [29] $end
$var wire 1 #! one_sec [28] $end
$var wire 1 $! one_sec [27] $end
$var wire 1 %! one_sec [26] $end
$var wire 1 &! one_sec [25] $end
$var wire 1 '! one_sec [24] $end
$var wire 1 (! one_sec [23] $end
$var wire 1 )! one_sec [22] $end
$var wire 1 *! one_sec [21] $end
$var wire 1 +! one_sec [20] $end
$var wire 1 ,! one_sec [19] $end
$var wire 1 -! one_sec [18] $end
$var wire 1 .! one_sec [17] $end
$var wire 1 /! one_sec [16] $end
$var wire 1 0! one_sec [15] $end
$var wire 1 1! one_sec [14] $end
$var wire 1 2! one_sec [13] $end
$var wire 1 3! one_sec [12] $end
$var wire 1 4! one_sec [11] $end
$var wire 1 5! one_sec [10] $end
$var wire 1 6! one_sec [9] $end
$var wire 1 7! one_sec [8] $end
$var wire 1 8! one_sec [7] $end
$var wire 1 9! one_sec [6] $end
$var wire 1 :! one_sec [5] $end
$var wire 1 ;! one_sec [4] $end
$var wire 1 <! one_sec [3] $end
$var wire 1 =! one_sec [2] $end
$var wire 1 >! one_sec [1] $end
$var wire 1 ?! one_sec [0] $end
$var wire 1 @! \ALT_INV_LessThan0~9_combout\ $end
$var wire 1 A! \ALT_INV_LessThan0~8_combout\ $end
$var wire 1 B! \ALT_INV_LessThan0~7_combout\ $end
$var wire 1 C! \ALT_INV_LessThan0~6_combout\ $end
$var wire 1 D! \ALT_INV_LessThan0~5_combout\ $end
$var wire 1 E! ALT_INV_one_sec [31] $end
$var wire 1 F! ALT_INV_one_sec [30] $end
$var wire 1 G! ALT_INV_one_sec [29] $end
$var wire 1 H! ALT_INV_one_sec [28] $end
$var wire 1 I! ALT_INV_one_sec [27] $end
$var wire 1 J! ALT_INV_one_sec [26] $end
$var wire 1 K! ALT_INV_one_sec [25] $end
$var wire 1 L! ALT_INV_one_sec [24] $end
$var wire 1 M! ALT_INV_one_sec [23] $end
$var wire 1 N! ALT_INV_one_sec [22] $end
$var wire 1 O! ALT_INV_one_sec [21] $end
$var wire 1 P! ALT_INV_one_sec [20] $end
$var wire 1 Q! ALT_INV_one_sec [19] $end
$var wire 1 R! ALT_INV_one_sec [18] $end
$var wire 1 S! ALT_INV_one_sec [17] $end
$var wire 1 T! ALT_INV_one_sec [16] $end
$var wire 1 U! ALT_INV_one_sec [15] $end
$var wire 1 V! ALT_INV_one_sec [14] $end
$var wire 1 W! ALT_INV_one_sec [13] $end
$var wire 1 X! ALT_INV_one_sec [12] $end
$var wire 1 Y! ALT_INV_one_sec [11] $end
$var wire 1 Z! ALT_INV_one_sec [10] $end
$var wire 1 [! ALT_INV_one_sec [9] $end
$var wire 1 \! ALT_INV_one_sec [8] $end
$var wire 1 ]! ALT_INV_one_sec [7] $end
$var wire 1 ^! ALT_INV_one_sec [6] $end
$var wire 1 _! ALT_INV_one_sec [5] $end
$var wire 1 `! ALT_INV_one_sec [4] $end
$var wire 1 a! ALT_INV_one_sec [3] $end
$var wire 1 b! ALT_INV_one_sec [2] $end
$var wire 1 c! ALT_INV_one_sec [1] $end
$var wire 1 d! ALT_INV_one_sec [0] $end
$var wire 1 e! \ALT_INV_LessThan0~3_combout\ $end
$var wire 1 f! \ALT_INV_LessThan0~2_combout\ $end
$var wire 1 g! \ALT_INV_LessThan0~1_combout\ $end
$var wire 1 h! \ALT_INV_LessThan0~0_combout\ $end
$var wire 1 i! \ALT_INV_Add0~125_sumout\ $end
$var wire 1 j! \ALT_INV_Add0~121_sumout\ $end
$var wire 1 k! \ALT_INV_Add0~117_sumout\ $end
$var wire 1 l! \ALT_INV_Add0~113_sumout\ $end
$var wire 1 m! \ALT_INV_Add0~109_sumout\ $end
$var wire 1 n! \ALT_INV_Add0~105_sumout\ $end
$var wire 1 o! \ALT_INV_Add0~101_sumout\ $end
$var wire 1 p! \ALT_INV_Add0~97_sumout\ $end
$var wire 1 q! \ALT_INV_Add0~93_sumout\ $end
$var wire 1 r! \ALT_INV_Add0~89_sumout\ $end
$var wire 1 s! \ALT_INV_Add0~85_sumout\ $end
$var wire 1 t! \ALT_INV_Add0~81_sumout\ $end
$var wire 1 u! \ALT_INV_Add0~77_sumout\ $end
$var wire 1 v! \ALT_INV_Add0~73_sumout\ $end
$var wire 1 w! \ALT_INV_Add0~69_sumout\ $end
$var wire 1 x! \ALT_INV_Add0~65_sumout\ $end
$var wire 1 y! \ALT_INV_Add0~61_sumout\ $end
$var wire 1 z! \ALT_INV_Add0~57_sumout\ $end
$var wire 1 {! \ALT_INV_Add0~53_sumout\ $end
$var wire 1 |! \ALT_INV_Add0~49_sumout\ $end
$var wire 1 }! \ALT_INV_Add0~45_sumout\ $end
$var wire 1 ~! \ALT_INV_Add0~41_sumout\ $end
$var wire 1 !" \ALT_INV_Add0~37_sumout\ $end
$var wire 1 "" \ALT_INV_Add0~33_sumout\ $end
$var wire 1 #" \ALT_INV_Add0~29_sumout\ $end
$var wire 1 $" \ALT_INV_Add0~25_sumout\ $end
$var wire 1 %" \ALT_INV_Add0~21_sumout\ $end
$var wire 1 &" \ALT_INV_Add0~9_sumout\ $end
$var wire 1 '" \ALT_INV_Add0~13_sumout\ $end
$var wire 1 (" \ALT_INV_Add0~17_sumout\ $end
$var wire 1 )" \ALT_INV_Add0~1_sumout\ $end
$var wire 1 *" \ALT_INV_Add0~5_sumout\ $end
$upscope $end
$upscope $end
$enddefinitions $end
#0
$dumpvars
0!
0"
0#
0$
1%
x&
1'
1(
1)
1*
1+
1,
0-
0.
0/
00
01
02
03
04
05
06
07
08
19
1:
1;
1<
1=
1>
1?
1@
0A
0B
0C
0D
0E
0F
0G
0H
0I
0J
0K
0L
0M
0N
0O
0P
0Q
0R
0S
0T
0U
0V
0W
0X
0Y
0Z
0[
0\
0]
0^
0_
0`
0a
0b
0c
0d
0e
0f
0g
0h
0i
0j
0k
0l
0m
0n
0o
0p
0q
0r
0s
0t
0u
0v
0w
0x
1y
1z
1{
0|
0}
0@!
0A!
0B!
0C!
0D!
0e!
0f!
0g!
0h!
0i!
1j!
1k!
1l!
1m!
1n!
1o!
1p!
1q!
1r!
1s!
1t!
1u!
1v!
1w!
1x!
1y!
1z!
1{!
1|!
1}!
1~!
1!"
1""
1#"
1$"
1%"
1&"
1'"
1("
1)"
1*"
0~
0!!
0"!
0#!
0$!
0%!
0&!
0'!
0(!
0)!
0*!
0+!
0,!
0-!
0.!
0/!
00!
01!
02!
03!
04!
05!
06!
07!
08!
09!
0:!
0;!
0<!
0=!
0>!
0?!
1E!
1F!
1G!
1H!
1I!
1J!
1K!
1L!
1M!
1N!
1O!
1P!
1Q!
1R!
1S!
1T!
1U!
1V!
1W!
1X!
1Y!
1Z!
1[!
1\!
1]!
1^!
1_!
1`!
1a!
1b!
1c!
1d!
$end
#10000
1!
1-
11
#20000
0!
0-
01
#30000
1!
1-
11
#40000
0!
0-
01
#50000
1!
1-
11
#60000
0!
0-
01
#70000
1!
1#
1-
1.
12
11
1?!
0d!
0?
1A
1i!
1B
0@
0z!
#80000
0!
0-
01
#90000
1!
1-
11
0?!
1>!
0c!
1d!
1?
0A
0B
1C
1z!
0i!
1D
1B
0C
1@
0z!
0y!
0D
09
1y!
1h!
19
0;
1|
0h!
1g!
1;
0|
0@
0g!
1@
#100000
0!
0-
01
#110000
1!
1-
11
1?!
0d!
0?
1A
1i!
0B
1C
0@
1z!
1D
0y!
#120000
0!
0-
01
#130000
1!
1-
11
0?!
0>!
1=!
0b!
1c!
1d!
1?
0A
1B
0C
0D
1E
1y!
0z!
0i!
1F
1D
0E
0B
1@
1z!
0y!
0x!
0F
09
1x!
1h!
19
0;
1|
0h!
1g!
1;
0|
0@
0g!
1@
#140000
0!
0-
01
#150000
1!
1-
11
1?!
0d!
0?
1A
1i!
1B
0@
0z!
09
1h!
0;
1|
1g!
#160000
0!
0-
01
#170000
1!
1-
11
0?!
0=!
1}
1b!
1d!
1?
0A
0D
1y!
0i!
10
0B
19
1z!
1/
0h!
1"
1;
0|
0g!
1@
#180000
0!
0-
01
#190000
1!
1-
11
1?!
0}
0d!
0?
1A
1i!
00
1B
0@
0z!
0/
0"
#200000
0!
0-
01
#210000
1!
1-
11
0?!
1>!
0c!
1d!
1?
0A
0B
1C
1z!
0i!
1D
1B
0C
1@
0z!
0y!
0D
09
1y!
1h!
19
0;
1|
0h!
1g!
1;
0|
0@
0g!
1@
#220000
0!
0-
01
#230000
1!
1-
11
1?!
0d!
0?
1A
1i!
0B
1C
0@
1z!
1D
0y!
#240000
0!
0-
01
#250000
1!
1-
11
0?!
0>!
1=!
0b!
1c!
1d!
1?
0A
1B
0C
0D
1E
1y!
0z!
0i!
1F
1D
0E
0B
1@
1z!
0y!
0x!
0F
09
1x!
1h!
19
0;
1|
0h!
1g!
1;
0|
0@
0g!
1@
#260000
0!
0-
01
#270000
1!
1-
11
1?!
0d!
0?
1A
1i!
1B
0@
0z!
09
1h!
0;
1|
1g!
#280000
0!
0-
01
#290000
1!
1-
11
0?!
0=!
1}
1b!
1d!
1?
0A
0D
1y!
0i!
10
0B
19
1z!
1/
0h!
1"
1;
0|
0g!
1@
#300000
0!
0-
01
#310000
1!
1-
11
1?!
0}
0d!
0?
1A
1i!
00
1B
0@
0z!
0/
0"
#320000
0!
0-
01
#330000
1!
1-
11
0?!
1>!
0c!
1d!
1?
0A
0B
1C
1z!
0i!
1D
1B
0C
1@
0z!
0y!
0D
09
1y!
1h!
19
0;
1|
0h!
1g!
1;
0|
0@
0g!
1@
#340000
0!
0-
01
#350000
1!
1-
11
1?!
0d!
0?
1A
1i!
0B
1C
0@
1z!
1D
0y!
#360000
0!
0-
01
#370000
1!
1-
11
0?!
0>!
1=!
0b!
1c!
1d!
1?
0A
1B
0C
0D
1E
1y!
0z!
0i!
1F
1D
0E
0B
1@
1z!
0y!
0x!
0F
09
1x!
1h!
19
0;
1|
0h!
1g!
1;
0|
0@
0g!
1@
#380000
0!
0-
01
#390000
1!
1-
11
1?!
0d!
0?
1A
1i!
1B
0@
0z!
09
1h!
0;
1|
1g!
#400000
0!
0-
01
#410000
1!
1-
11
0?!
0=!
1}
1b!
1d!
1?
0A
0D
1y!
0i!
10
0B
19
1z!
1/
0h!
1"
1;
0|
0g!
1@
#420000
0!
0-
01
#430000
1!
1-
11
1?!
0}
0d!
0?
1A
1i!
00
1B
0@
0z!
0/
0"
#440000
0!
0-
01
#450000
1!
1-
11
0?!
1>!
0c!
1d!
1?
0A
0B
1C
1z!
0i!
1D
1B
0C
1@
0z!
0y!
0D
09
1y!
1h!
19
0;
1|
0h!
1g!
1;
0|
0@
0g!
1@
#460000
0!
0-
01
#470000
1!
1-
11
1?!
0d!
0?
1A
1i!
0B
1C
0@
1z!
1D
0y!
#480000
0!
0#
0-
0.
02
01
0?!
0>!
1c!
1d!
1?
0A
1B
0C
0z!
0i!
0D
0B
1@
09
1z!
1y!
1h!
19
0;
1|
0h!
1g!
1;
0|
0@
0g!
1@
#490000
1!
1-
11
#500000
0!
1#
0-
1.
12
01
#510000
1!
1-
11
1?!
0d!
0?
1A
1i!
1B
0@
0z!
#520000
0!
0-
01
#530000
1!
1-
11
0?!
1>!
0c!
1d!
1?
0A
0B
1C
1z!
0i!
1D
1B
0C
1@
0z!
0y!
0D
09
1y!
1h!
19
0;
1|
0h!
1g!
1;
0|
0@
0g!
1@
#540000
0!
0-
01
#550000
1!
1-
11
1?!
0d!
0?
1A
1i!
0B
1C
0@
1z!
1D
0y!
#560000
0!
0-
01
#570000
1!
1-
11
0?!
0>!
1=!
0b!
1c!
1d!
1?
0A
1B
0C
0D
1E
1y!
0z!
0i!
1F
1D
0E
0B
1@
1z!
0y!
0x!
0F
09
1x!
1h!
19
0;
1|
0h!
1g!
1;
0|
0@
0g!
1@
#580000
0!
0-
01
#590000
1!
1-
11
1?!
0d!
0?
1A
1i!
1B
0@
0z!
09
1h!
0;
1|
1g!
#600000
0!
0-
01
#610000
1!
1-
11
0?!
0=!
1}
1b!
1d!
1?
0A
0D
1y!
0i!
10
0B
19
1z!
1/
0h!
1"
1;
0|
0g!
1@
#620000
0!
0-
01
#630000
1!
1-
11
1?!
0}
0d!
0?
1A
1i!
00
1B
0@
0z!
0/
0"
#640000
0!
0-
01
#650000
1!
1-
11
0?!
1>!
0c!
1d!
1?
0A
0B
1C
1z!
0i!
1D
1B
0C
1@
0z!
0y!
0D
09
1y!
1h!
19
0;
1|
0h!
1g!
1;
0|
0@
0g!
1@
#660000
0!
0-
01
#670000
1!
1-
11
1?!
0d!
0?
1A
1i!
0B
1C
0@
1z!
1D
0y!
#680000
0!
0-
01
#690000
1!
1-
11
0?!
0>!
1=!
0b!
1c!
1d!
1?
0A
1B
0C
0D
1E
1y!
0z!
0i!
1F
1D
0E
0B
1@
1z!
0y!
0x!
0F
09
1x!
1h!
19
0;
1|
0h!
1g!
1;
0|
0@
0g!
1@
#700000
0!
0-
01
#710000
1!
1-
11
1?!
0d!
0?
1A
1i!
1B
0@
0z!
09
1h!
0;
1|
1g!
#720000
0!
0-
01
#730000
1!
1-
11
0?!
0=!
1}
1b!
1d!
1?
0A
0D
1y!
0i!
10
0B
19
1z!
1/
0h!
1"
1;
0|
0g!
1@
#740000
0!
0-
01
#750000
1!
1-
11
1?!
0}
0d!
0?
1A
1i!
00
1B
0@
0z!
0/
0"
#760000
0!
0-
01
#770000
1!
1-
11
0?!
1>!
0c!
1d!
1?
0A
0B
1C
1z!
0i!
1D
1B
0C
1@
0z!
0y!
0D
09
1y!
1h!
19
0;
1|
0h!
1g!
1;
0|
0@
0g!
1@
#780000
0!
0-
01
#790000
1!
1-
11
1?!
0d!
0?
1A
1i!
0B
1C
0@
1z!
1D
0y!
#800000
0!
0-
01
#810000
1!
1-
11
0?!
0>!
1=!
0b!
1c!
1d!
1?
0A
1B
0C
0D
1E
1y!
0z!
0i!
1F
1D
0E
0B
1@
1z!
0y!
0x!
0F
09
1x!
1h!
19
0;
1|
0h!
1g!
1;
0|
0@
0g!
1@
#820000
0!
0-
01
#830000
1!
1-
11
1?!
0d!
0?
1A
1i!
1B
0@
0z!
09
1h!
0;
1|
1g!
#840000
0!
0-
01
#850000
1!
1-
11
0?!
0=!
1}
1b!
1d!
1?
0A
0D
1y!
0i!
10
0B
19
1z!
1/
0h!
1"
1;
0|
0g!
1@
#860000
0!
0-
01
#870000
1!
1-
11
1?!
0}
0d!
0?
1A
1i!
00
1B
0@
0z!
0/
0"
#880000
0!
0-
01
#890000
1!
1-
11
0?!
1>!
0c!
1d!
1?
0A
0B
1C
1z!
0i!
1D
1B
0C
1@
0z!
0y!
0D
09
1y!
1h!
19
0;
1|
0h!
1g!
1;
0|
0@
0g!
1@
#900000
0!
0-
01
#910000
1!
1-
11
1?!
0d!
0?
1A
1i!
0B
1C
0@
1z!
1D
0y!
#920000
0!
0-
01
#930000
1!
1-
11
0?!
0>!
1=!
0b!
1c!
1d!
1?
0A
1B
0C
0D
1E
1y!
0z!
0i!
1F
1D
0E
0B
1@
1z!
0y!
0x!
0F
09
1x!
1h!
19
0;
1|
0h!
1g!
1;
0|
0@
0g!
1@
#940000
0!
0-
01
#950000
1!
1-
11
1?!
0d!
0?
1A
1i!
1B
0@
0z!
09
1h!
0;
1|
1g!
#960000
0!
0-
01
#970000
1!
1-
11
0?!
0=!
1}
1b!
1d!
1?
0A
0D
1y!
0i!
10
0B
19
1z!
1/
0h!
1"
1;
0|
0g!
1@
#980000
0!
0-
01
#990000
1!
1-
11
1?!
0}
0d!
0?
1A
1i!
00
1B
0@
0z!
0/
0"
